parteC/simulation/qsim/parteC.msim.vcd
$comment
	File created using the following command:
		vcd file parteC.msim.vcd -direction
$end
$date
	Mon Nov 04 17:32:37 2024
$end
$version
	ModelSim Version 10.1d
$end
$timescale
	1ps
$end
$scope module Block1_vlg_vec_tst $end
$var reg 1 ! a0 $end
$var reg 1 " a1 $end
$var reg 1 # a2 $end
$var reg 1 $ a3 $end
$var reg 1 % b0 $end
$var reg 1 & b1 $end
$var reg 1 ' b2 $end
$var reg 1 ( b3 $end
$var reg 1 ) Bin $end
$var reg 1 * CLK $end
$var wire 1 + Bout $end
$var wire 1 , Z0 $end
$var wire 1 - Z1 $end
$var wire 1 . Z2 $end
$var wire 1 / Z3 $end
$var wire 1 0 sampler $end
$scope module i1 $end
$var wire 1 1 gnd $end
$var wire 1 2 vcc $end
$var wire 1 3 unknown $end
$var tri1 1 4 devclrn $end
$var tri1 1 5 devpor $end
$var tri1 1 6 devoe $end
$var wire 1 7 b2v_inst25|q~q $end
$var wire 1 8 b3~input_o $end
$var wire 1 9 Bout~output_o $end
$var wire 1 : Z3~output_o $end
$var wire 1 ; Z2~output_o $end
$var wire 1 < Z1~output_o $end
$var wire 1 = Z0~output_o $end
$var wire 1 > CLK~input_o $end
$var wire 1 ? a3~input_o $end
$var wire 1 @ b2v_inst24|q~q $end
$var wire 1 A b2~input_o $end
$var wire 1 B b2v_inst31|q~feeder_combout $end
$var wire 1 C b2v_inst31|q~q $end
$var wire 1 D a2~input_o $end
$var wire 1 E b2v_inst30|q~feeder_combout $end
$var wire 1 F b2v_inst30|q~q $end
$var wire 1 G b2v_inst7|Bout~0_combout $end
$var wire 1 H a1~input_o $end
$var wire 1 I b2v_inst28|q~feeder_combout $end
$var wire 1 J b2v_inst28|q~q $end
$var wire 1 K b0~input_o $end
$var wire 1 L b2v_inst27|q~feeder_combout $end
$var wire 1 M b2v_inst27|q~q $end
$var wire 1 N a0~input_o $end
$var wire 1 O b2v_inst1|q~feeder_combout $end
$var wire 1 P b2v_inst1|q~q $end
$var wire 1 Q b2v_inst|Bout~combout $end
$var wire 1 R b2v_inst7|Bout~1_combout $end
$var wire 1 S b2v_inst7|Bout~2_combout $end
$var wire 1 T b2v_inst8|Bout~combout $end
$var wire 1 U b2v_inst23|q~q $end
$var wire 1 V b2v_inst8|Diff~combout $end
$var wire 1 W b2v_inst22|q~q $end
$var wire 1 X b1~input_o $end
$var wire 1 Y b2v_inst29|q~feeder_combout $end
$var wire 1 Z b2v_inst29|q~q $end
$var wire 1 [ b2v_inst7|Diff~combout $end
$var wire 1 \ b2v_inst21|q~q $end
$var wire 1 ] b2v_inst6|Diff~combout $end
$var wire 1 ^ b2v_inst19|q~q $end
$var wire 1 _ Bin~input_o $end
$var wire 1 ` b2v_inst26|q~feeder_combout $end
$var wire 1 a b2v_inst26|q~q $end
$var wire 1 b b2v_inst|Diff~combout $end
$var wire 1 c b2v_inst20|q~q $end
$upscope $end
$upscope $end
$enddefinitions $end
#0
$dumpvars
0!
0"
0#
0$
0%
0&
0'
0(
0)
0*
0+
0,
0-
0.
0/
x0
01
12
x3
14
15
16
07
08
09
0:
0;
0<
0=
0>
0?
0@
0A
0B
0C
0D
0E
0F
0G
0H
0I
0J
0K
0L
0M
0N
0O
0P
0Q
0R
0S
0T
0U
0V
0W
0X
0Y
0Z
0[
0\
0]
0^
0_
0`
0a
0b
0c
$end
#5000
1*
1>
00
#10000
0*
0>
10
#15000
1*
1>
00
#20000
0*
0>
10
#25000
1*
1>
00
#30000
0*
0>
10
#35000
1*
1>
00
#40000
0*
0>
10
#45000
1*
1>
00
#50000
0*
0>
10
#55000
1*
1>
00
#60000
0*
0>
10
#65000
1*
1>
00
#70000
0*
0>
10
#75000
1*
1>
00
#80000
0*
0>
10
#85000
1*
1>
00
#90000
0*
0>
10
#95000
1*
1>
00
#100000
0*
0>
10
#105000
1*
1>
00
#110000
0*
0>
10
#115000
1*
1>
00
#120000
0*
0>
10
#125000
1*
1>
00
#130000
0*
0>
10
#135000
1*
1>
00
#140000
0*
0>
10
#145000
1*
1>
00
#150000
0*
0>
10
#155000
1*
1>
00
#160000
0*
0>
10
#165000
1*
1>
00
#170000
0*
0>
10
#175000
1*
1>
00
#180000
0*
0>
10
#185000
1*
1>
00
#190000
0*
0>
10
#195000
1*
1>
00
#200000
0*
0>
10
#205000
1*
1>
00
#210000
0*
0>
10
#215000
1*
1>
00
#220000
0*
0>
10
#225000
1*
1>
00
#230000
0*
0>
10
#235000
1*
1>
00
#240000
0*
0>
10
#245000
1*
1>
00
#250000
0*
0>
10
#255000
1*
1>
00
#260000
0*
0>
10
#265000
1*
1>
00
#270000
0*
0>
10
#275000
1*
1>
00
#280000
0*
0>
10
#285000
1*
1>
00
#290000
0*
0>
10
#295000
1*
1>
00
#300000
0*
0>
10
#305000
1*
1>
00
#310000
1!
1"
1#
1$
1%
1&
1'
1(
0*
1N
1H
1D
1?
1K
1X
1A
18
0>
10
1O
1I
1E
1L
1Y
1B
#315000
1*
1>
00
1Z
1P
1M
1J
1F
1C
1@
17
#320000
0*
0>
10
#325000
1*
1>
00
#330000
0*
0>
10
#335000
1*
1>
00
#340000
0*
0>
10
#345000
1*
1>
00
#350000
0*
0>
10
#355000
1*
1>
00
#360000
0*
0>
10
#365000
1*
1>
00
#370000
0*
0>
10
#375000
1*
1>
00
#380000
0*
0>
10
#385000
1*
1>
00
#390000
0*
0>
10
#395000
1*
1>
00
#400000
0*
0>
10
#405000
1*
1>
00
#410000
0*
0>
10
#415000
1*
1>
00
#420000
0*
0>
10
#425000
1*
1>
00
#430000
0*
0>
10
#435000
1*
1>
00
#440000
0*
0>
10
#445000
1*
1>
00
#450000
0*
0>
10
#455000
1*
1>
00
#460000
0*
0>
10
#465000
1*
1>
00
#470000
0*
0>
10
#475000
1*
1>
00
#480000
0*
0>
10
#485000
1*
1>
00
#490000
0*
0>
10
#495000
1*
1>
00
#500000
0*
0>
10
#505000
1*
1>
00
#510000
0*
0>
10
#515000
1*
1>
00
#520000
0*
0>
10
#525000
1*
1>
00
#530000
0*
0>
10
#535000
1*
1>
00
#540000
0*
0>
10
#545000
1*
1>
00
#550000
0*
0>
10
#555000
1*
1>
00
#560000
0*
0>
10
#565000
1*
1>
00
#570000
0*
0>
10
#575000
1*
1>
00
#580000
0*
0>
10
#585000
1*
1>
00
#590000
0*
0>
10
#595000
1*
1>
00
#600000
0*
0>
10
#605000
1*
1>
00
#610000
0*
0>
10
#615000
1*
1>
00
#620000
0*
0>
10
#625000
1*
1>
00
#630000
0*
0>
10
#635000
1*
1>
00
#640000
0*
0>
10
#645000
1*
1>
00
#650000
0*
0>
10
#655000
1*
1>
00
#660000
0*
0>
10
#665000
1*
1>
00
#670000
0*
0>
10
#675000
1*
1>
00
#680000
0*
0>
10
#685000
1*
1>
00
#690000
0*
0>
10
#695000
1*
1>
00
#700000
0*
0>
10
#705000
1*
1>
00
#710000
0*
0>
10
#715000
1*
1>
00
#720000
0*
0>
10
#725000
1*
1>
00
#730000
0*
0>
10
#735000
1*
1>
00
#740000
0*
0>
10
#745000
1*
1>
00
#750000
0*
0>
10
#755000
1*
1>
00
#760000
0*
0>
10
#765000
1*
1>
00
#770000
0*
0>
10
#775000
1*
1>
00
#780000
0*
0>
10
#785000
1*
1>
00
#790000
0!
0"
0#
0*
0N
0H
0D
0>
10
0O
0I
0E
#795000
1*
1>
00
0P
0J
0F
1b
1Q
1]
1[
1S
1R
1G
0]
0[
0S
1V
1T
#800000
0$
0%
0&
0'
0(
0*
0?
0K
0X
0A
08
0>
10
0L
0Y
0B
#805000
1*
1>
00
0Z
0M
0C
0@
07
1c
1W
1U
1]
0b
0Q
0R
0G
1=
1:
19
1,
1/
1+
0]
0V
0T
#810000
0*
0>
10
#815000
1*
1>
00
0c
0W
0U
0=
0:
09
0,
0/
0+
#820000
0*
0>
10
#825000
1*
1>
00
#830000
0*
0>
10
#835000
1*
1>
00
#840000
0*
0>
10
#845000
1*
1>
00
#850000
0*
0>
10
#855000
1*
1>
00
#860000
0*
0>
10
#865000
1*
1>
00
#870000
0*
0>
10
#875000
1*
1>
00
#880000
0*
0>
10
#885000
1*
1>
00
#890000
0*
0>
10
#895000
1*
1>
00
#900000
0*
0>
10
#905000
1*
1>
00
#910000
0*
0>
10
#915000
1*
1>
00
#920000
0*
0>
10
#925000
1*
1>
00
#930000
0*
0>
10
#935000
1*
1>
00
#940000
0*
0>
10
#945000
1*
1>
00
#950000
0*
0>
10
#955000
1*
1>
00
#960000
0*
0>
10
#965000
1*
1>
00
#970000
0*
0>
10
#975000
1*
1>
00
#980000
0*
0>
10
#985000
1*
1>
00
#990000
0*
0>
10
#995000
1*
1>
00
