parteD/simulation/qsim/parteD.msim.vcd
$comment
	File created using the following command:
		vcd file parteD.msim.vcd -direction
$end
$date
	Sat Nov 02 23:42:52 2024
$end
$version
	ModelSim Version 10.1d
$end
$timescale
	1ps
$end
$scope module parteD_vlg_vec_tst $end
$var reg 1 ! clock $end
$var reg 1 " reset $end
$var reg 1 # X $end
$var wire 1 $ Z0 $end
$var wire 1 % Z1 $end
$var wire 1 & Z2 $end
$var wire 1 ' Z3 $end
$var wire 1 ( sampler $end
$scope module i1 $end
$var wire 1 ) gnd $end
$var wire 1 * vcc $end
$var wire 1 + unknown $end
$var tri1 1 , devclrn $end
$var tri1 1 - devpor $end
$var tri1 1 . devoe $end
$var wire 1 / clock~input_o $end
$var wire 1 0 clock~inputclkctrl_outclk $end
$var wire 1 1 Z0~output_o $end
$var wire 1 2 Z1~output_o $end
$var wire 1 3 Z2~output_o $end
$var wire 1 4 Z3~output_o $end
$var wire 1 5 reset~input_o $end
$var wire 1 6 fstate.state_bit_0~0_combout $end
$var wire 1 7 fstate.state_bit_0~q $end
$var wire 1 8 fstate.state_bit_1~0_combout $end
$var wire 1 9 fstate.state_bit_1~q $end
$var wire 1 : X~input_o $end
$var wire 1 ; fstate.state_bit_2~0_combout $end
$var wire 1 < fstate.state_bit_2~1_combout $end
$var wire 1 = fstate.state_bit_2~q $end
$var wire 1 > Z0~0_combout $end
$var wire 1 ? Z1~0_combout $end
$var wire 1 @ Z2~0_combout $end
$var wire 1 A Z3~0_combout $end
$upscope $end
$upscope $end
$enddefinitions $end
#0
$dumpvars
0!
0"
0#
x$
x%
x&
x'
x(
0)
1*
x+
1,
1-
1.
0/
x0
x1
x2
x3
x4
05
x6
07
x8
09
0:
x;
x<
0=
x>
x?
x@
xA
$end
#173
00
#686
0>
#703
1A
#820
08
#982
0@
#984
0?
#3382
01
0$
#3487
04
0'
#3504
16
#3689
03
0&
#3776
0;
#3993
02
0%
#4147
0<
#10000
1#
0(
#10769
1:
#14303
1;
#14666
1<
#20000
0#
1(
#20874
0:
#24650
0;
#25000
1!
0(
#25021
0<
#25819
1/
#26006
10
#28397
17
#29160
18
#29322
1?
#29324
1@
#30000
1#
1(
#30769
1:
#32073
13
1&
#32385
12
1%
#40000
0#
0(
#40874
0:
#50000
0!
1#
1(
#50769
1:
#50924
0/
#51097
00
#60000
0#
0(
#60874
0:
#70000
1#
1(
#70769
1:
#75000
1!
0(
#75819
1/
#76006
10
#78397
19
#78981
1;
#79034
0A
06
#79049
1>
#79344
1<
#80000
0#
1(
#80874
0:
#81771
14
1'
#81799
11
1$
#84650
0;
#85021
0<
#90000
1#
0(
#90769
1:
#94303
1;
#94666
1<
#100000
0!
0#
1(
#100874
0:
#100924
0/
#101097
00
#104650
0;
#105021
0<
#110000
1#
0(
#110769
1:
#114303
1;
#114666
1<
#120000
0#
1(
#120874
0:
#124650
0;
#125000
1!
0(
#125021
0<
#125819
1/
#126006
10
#128397
07
#129217
08
#129379
0@
#129381
0?
#130000
1#
1(
#130769
1:
#132086
03
0&
#132390
02
0%
#140000
0#
0(
#140874
0:
#150000
0!
1#
1(
#150769
1:
#150924
0/
#151097
00
#160000
0#
0(
#160874
0:
#170000
1#
1(
#170769
1:
#175000
1!
0(
#175819
1/
#176006
10
#178397
09
#179062
1;
#179083
0>
#179100
1A
#179101
16
#179425
1<
#180000
0#
1(
#180874
0:
#181779
01
0$
#181884
04
0'
#184650
0;
#185021
0<
#190000
1#
0(
#190769
1:
#194303
1;
#194666
1<
#200000
0!
0#
1(
#200874
0:
#200924
0/
#201097
00
#204650
0;
#205021
0<
#210000
1#
0(
#210769
1:
#214303
1;
#214666
1<
#220000
0#
1(
#220874
0:
#224650
0;
#225000
1!
0(
#225021
0<
#225819
1/
#226006
10
#228397
17
#229160
18
#229322
1?
#229324
1@
#230000
1#
1(
#230769
1:
#232073
13
1&
#232385
12
1%
#240000
0#
0(
#240874
0:
#250000
0!
1#
1(
#250769
1:
#250924
0/
#251097
00
#260000
0#
0(
#260874
0:
#270000
1#
1(
#270769
1:
#275000
1!
0(
#275819
1/
#276006
10
#278397
19
#278981
1;
#279034
0A
06
#279049
1>
#279344
1<
#280000
0#
1(
#280874
0:
#281771
14
1'
#281799
11
1$
#284650
0;
#285021
0<
#290000
1#
0(
#290769
1:
#294303
1;
#294666
1<
#300000
0!
0#
1(
#300874
0:
#300924
0/
#301097
00
#304650
0;
#305021
0<
#310000
1#
0(
#310769
1:
#314303
1;
#314666
1<
#320000
0#
1(
#320874
0:
#324650
0;
#325000
1!
0(
#325021
0<
#325819
1/
#326006
10
#328397
07
#329217
08
#329379
0@
#329381
0?
#330000
1#
1(
#330769
1:
#332086
03
0&
#332390
02
0%
#340000
0#
0(
#340874
0:
#350000
0!
1#
1(
#350769
1:
#350924
0/
#351097
00
#360000
0#
0(
#360874
0:
#370000
1#
1(
#370769
1:
#375000
1!
0(
#375819
1/
#376006
10
#378397
09
#379062
1;
#379083
0>
#379100
1A
#379101
16
#379425
1<
#380000
0#
1(
#380874
0:
#381779
01
0$
#381884
04
0'
#384650
0;
#385021
0<
#390000
1#
0(
#390769
1:
#394303
1;
#394666
1<
#400000
0!
0#
1(
#400874
0:
#400924
0/
#401097
00
#404650
0;
#405021
0<
#410000
1#
0(
#410769
1:
#414303
1;
#414666
1<
#420000
0#
1(
#420874
0:
#424650
0;
#425000
1!
0(
#425021
0<
#425819
1/
#426006
10
#428397
17
#429160
18
#429322
1?
#429324
1@
#430000
1#
1(
#430769
1:
#432073
13
1&
#432385
12
1%
#440000
0#
0(
#440874
0:
#450000
0!
1#
1(
#450769
1:
#450924
0/
#451097
00
#460000
0#
0(
#460874
0:
#470000
1#
1(
#470769
1:
#475000
1!
0(
#475819
1/
#476006
10
#478397
19
#478981
1;
#479034
0A
06
#479049
1>
#479344
1<
#480000
0#
1(
#480874
0:
#481771
14
1'
#481799
11
1$
#484650
0;
#485021
0<
#490000
1#
0(
#490769
1:
#494303
1;
#494666
1<
#500000
0!
0#
1(
#500874
0:
#500924
0/
#501097
00
#504650
0;
#505021
0<
#510000
1#
0(
#510769
1:
#514303
1;
#514666
1<
#520000
0#
1(
#520874
0:
#524650
0;
#525000
1!
0(
#525021
0<
#525819
1/
#526006
10
#528397
07
#529217
08
#529379
0@
#529381
0?
#530000
1#
1(
#530769
1:
#532086
03
0&
#532390
02
0%
#540000
0#
0(
#540874
0:
#550000
0!
1#
1(
#550769
1:
#550924
0/
#551097
00
#560000
0#
0(
#560874
0:
#570000
1#
1(
#570769
1:
#575000
1!
0(
#575819
1/
#576006
10
#578397
09
#579062
1;
#579083
0>
#579100
1A
#579101
16
#579425
1<
#580000
0#
1(
#580874
0:
#581779
01
0$
#581884
04
0'
#584650
0;
#585021
0<
#590000
1#
0(
#590769
1:
#594303
1;
#594666
1<
#600000
0!
0#
1(
#600874
0:
#600924
0/
#601097
00
#604650
0;
#605021
0<
#610000
1#
0(
#610769
1:
#614303
1;
#614666
1<
#620000
0#
1(
#620874
0:
#624650
0;
#625000
1!
0(
#625021
0<
#625819
1/
#626006
10
#628397
17
#629160
18
#629322
1?
#629324
1@
#630000
1#
1(
#630769
1:
#632073
13
1&
#632385
12
1%
#640000
0#
0(
#640874
0:
#650000
0!
1#
1(
#650769
1:
#650924
0/
#651097
00
#660000
0#
0(
#660874
0:
#670000
1#
1(
#670769
1:
#675000
1!
0(
#675819
1/
#676006
10
#678397
19
#678981
1;
#679034
0A
06
#679049
1>
#679344
1<
#680000
0#
1(
#680874
0:
#681771
14
1'
#681799
11
1$
#684650
0;
#685021
0<
#690000
1#
0(
#690769
1:
#694303
1;
#694666
1<
#700000
0!
0#
1(
#700874
0:
#700924
0/
#701097
00
#704650
0;
#705021
0<
#710000
1#
0(
#710769
1:
#714303
1;
#714666
1<
#720000
0#
1(
#720874
0:
#724650
0;
#725000
1!
0(
#725021
0<
#725819
1/
#726006
10
#728397
07
#729217
08
#729379
0@
#729381
0?
#730000
1#
1(
#730769
1:
#732086
03
0&
#732390
02
0%
#740000
0#
0(
#740874
0:
#750000
0!
1#
1(
#750769
1:
#750924
0/
#751097
00
#760000
0#
0(
#760874
0:
#770000
1#
1(
#770769
1:
#775000
1!
0(
#775819
1/
#776006
10
#778397
09
#779062
1;
#779083
0>
#779100
1A
#779101
16
#779425
1<
#780000
0#
1(
#780874
0:
#781779
01
0$
#781884
04
0'
#784650
0;
#785021
0<
#790000
1#
0(
#790769
1:
#794303
1;
#794666
1<
#800000
0!
0#
1(
#800874
0:
#800924
0/
#801097
00
#804650
0;
#805021
0<
#810000
1#
0(
#810769
1:
#814303
1;
#814666
1<
#820000
0#
1(
#820874
0:
#824650
0;
#825000
1!
0(
#825021
0<
#825819
1/
#826006
10
#828397
17
#829160
18
#829322
1?
#829324
1@
#830000
1#
1(
#830769
1:
#832073
13
1&
#832385
12
1%
#840000
0#
0(
#840874
0:
#850000
0!
1#
1(
#850769
1:
#850924
0/
#851097
00
#860000
0#
0(
#860874
0:
#870000
1#
1(
#870769
1:
#875000
1!
0(
#875819
1/
#876006
10
#878397
19
#878981
1;
#879034
0A
06
#879049
1>
#879344
1<
#880000
0#
1(
#880874
0:
#881771
14
1'
#881799
11
1$
#884650
0;
#885021
0<
#890000
1#
0(
#890769
1:
#894303
1;
#894666
1<
#900000
0!
0#
1(
#900874
0:
#900924
0/
#901097
00
#904650
0;
#905021
0<
#910000
1#
0(
#910769
1:
#914303
1;
#914666
1<
#920000
0#
1(
#920874
0:
#924650
0;
#925000
1!
0(
#925021
0<
#925819
1/
#926006
10
#928397
07
#929217
08
#929379
0@
#929381
0?
#930000
1#
1(
#930769
1:
#932086
03
0&
#932390
02
0%
#940000
0#
0(
#940874
0:
#950000
0!
1#
1(
#950769
1:
#950924
0/
#951097
00
#960000
0#
0(
#960874
0:
#970000
1#
1(
#970769
1:
#975000
1!
0(
#975819
1/
#976006
10
#978397
09
#979062
1;
#979083
0>
#979100
1A
#979101
16
#979425
1<
#980000
0#
1(
#980874
0:
#981779
01
0$
#981884
04
0'
#984650
0;
#985021
0<
#990000
1#
0(
#990769
1:
#994303
1;
#994666
1<
