parteB/simulation/qsim/parteB.msim.vcd
$comment
	File created using the following command:
		vcd file parteB.msim.vcd -direction
$end
$date
	Sun Oct 27 22:05:29 2024
$end
$version
	ModelSim Version 10.1d
$end
$timescale
	1ps
$end
$scope module parteB_vlg_vec_tst $end
$var reg 1 ! A $end
$var reg 1 " B $end
$var reg 1 # Bin $end
$var reg 1 $ clk $end
$var wire 1 % Bout $end
$var wire 1 & Diff $end
$var wire 1 ' sampler $end
$scope module i1 $end
$var wire 1 ( gnd $end
$var wire 1 ) vcc $end
$var wire 1 * unknown $end
$var tri1 1 + devclrn $end
$var tri1 1 , devpor $end
$var tri1 1 - devoe $end
$var wire 1 . A~input_o $end
$var wire 1 / Diff~output_o $end
$var wire 1 0 Bout~output_o $end
$var wire 1 1 clk~input_o $end
$var wire 1 2 B~input_o $end
$var wire 1 3 Bin~input_o $end
$var wire 1 4 diff_internal~combout $end
$var wire 1 5 FFD_diff|q~q $end
$var wire 1 6 bout_internal~combout $end
$var wire 1 7 FFD_bout|q~q $end
$upscope $end
$upscope $end
$enddefinitions $end
#0
$dumpvars
1!
0"
0#
0$
x%
x&
x'
0(
1)
x*
1+
1,
1-
1.
x/
x0
01
02
03
x4
05
x6
07
$end
#3636
0/
0&
#4103
00
0%
#4220
06
#5000
1$
0'
#5312
14
#5786
11
#9849
15
#10000
0$
1'
#10893
01
#13547
1/
1&
#15000
1$
0'
#15786
11
#20000
0$
1'
#20893
01
#25000
1$
0'
#25786
11
#30000
0$
1'
#30893
01
#35000
1$
0'
#35786
11
#40000
0$
1'
#40893
01
#45000
1$
0'
#45786
11
#50000
1#
0$
1'
#50806
13
#50893
01
#54718
04
#55000
1$
0'
#55786
11
#59849
05
#60000
1"
0$
1'
#60766
12
#60893
01
#63485
0/
0&
#64360
16
#64361
14
#65000
1$
0'
#65786
11
#69849
15
17
#70000
0$
1'
#70893
01
#73547
1/
1&
#73945
10
1%
#75000
1$
0'
#75786
11
#80000
0$
1'
#80893
01
#85000
1$
0'
#85786
11
#90000
0$
1'
#90893
01
#95000
1$
0'
#95786
11
#100000
0"
0$
1'
#100873
02
#100893
01
#104736
06
#104739
04
#105000
1$
0'
#105786
11
#109849
05
07
#110000
0$
1'
#110893
01
#113485
0/
0&
#113952
00
0%
#115000
1$
0'
#115786
11
#120000
0$
1'
#120893
01
#125000
1$
0'
#125786
11
#130000
0$
1'
#130893
01
#135000
1$
0'
#135786
11
#140000
0$
1'
#140893
01
#145000
1$
0'
#145786
11
#150000
0!
0$
1'
#150893
01
#150903
0.
#155000
1$
0'
#155786
11
#156606
16
#156608
14
#159849
15
17
#160000
0$
1'
#160893
01
#163547
1/
1&
#163945
10
1%
#165000
1$
0'
#165786
11
#170000
0$
1'
#170893
01
#175000
1$
0'
#175786
11
#180000
1!
0$
1'
#180796
1.
#180893
01
#185000
1$
0'
#185786
11
#186119
04
#186121
06
#189849
05
07
#190000
0$
1'
#190893
01
#193485
0/
0&
#193952
00
0%
#195000
1$
0'
#195786
11
#200000
0#
0$
1'
#200893
01
#200913
03
#205000
1$
0'
#205152
14
#205786
11
#209849
15
#210000
0$
1'
#210893
01
#213547
1/
1&
#215000
1$
0'
#215786
11
#220000
0$
1'
#220893
01
#225000
1$
0'
#225786
11
#230000
1"
0!
0$
1'
#230766
12
#230893
01
#230903
0.
#234355
04
#235000
1$
0'
#235786
11
#236606
16
#236608
14
#239849
17
#240000
0$
1'
#240893
01
#243945
10
1%
#245000
1$
0'
#245786
11
#250000
0$
1'
#250893
01
#255000
1$
0'
#255786
11
#260000
0"
1!
0$
1'
#260796
1.
#260873
02
#260893
01
#264736
06
#264739
04
#265000
1$
0'
#265786
11
#266108
14
#269849
07
#270000
0$
1'
#270893
01
#273952
00
0%
#275000
1$
0'
#275786
11
#280000
0$
1'
#280893
01
#285000
1$
0'
#285786
11
#290000
0$
1'
#290893
01
#295000
1$
0'
#295786
11
#300000
0$
1'
#300893
01
#305000
1$
0'
#305786
11
#310000
0$
1'
#310893
01
#315000
1$
0'
#315786
11
#320000
0$
1'
#320893
01
#325000
1$
0'
#325786
11
#330000
0$
1'
#330893
01
#335000
1$
0'
#335786
11
#340000
0$
1'
#340893
01
#345000
1$
0'
#345786
11
#350000
0$
1'
#350893
01
#355000
1$
0'
#355786
11
#360000
0$
1'
#360893
01
#365000
1$
0'
#365786
11
#370000
0$
1'
#370893
01
#375000
1$
0'
#375786
11
#380000
0$
1'
#380893
01
#385000
1$
0'
#385786
11
#390000
0$
1'
#390893
01
#395000
1$
0'
#395786
11
#400000
0$
1'
#400893
01
#405000
1$
0'
#405786
11
#410000
0$
1'
#410893
01
#415000
1$
0'
#415786
11
#420000
0$
1'
#420893
01
#425000
1$
0'
#425786
11
#430000
0$
1'
#430893
01
#435000
1$
0'
#435786
11
#440000
0$
1'
#440893
01
#445000
1$
0'
#445786
11
#450000
0$
1'
#450893
01
#455000
1$
0'
#455786
11
#460000
0$
1'
#460893
01
#465000
1$
0'
#465786
11
#470000
0$
1'
#470893
01
#475000
1$
0'
#475786
11
#480000
0$
1'
#480893
01
#485000
1$
0'
#485786
11
#490000
0$
1'
#490893
01
#495000
1$
0'
#495786
11
#500000
0$
1'
#500893
01
#505000
1$
0'
#505786
11
#510000
0$
1'
#510893
01
#515000
1$
0'
#515786
11
#520000
0$
1'
#520893
01
#525000
1$
0'
#525786
11
#530000
0$
1'
#530893
01
#535000
1$
0'
#535786
11
#540000
0$
1'
#540893
01
#545000
1$
0'
#545786
11
#550000
0$
1'
#550893
01
#555000
1$
0'
#555786
11
#560000
0$
1'
#560893
01
#565000
1$
0'
#565786
11
#570000
0$
1'
#570893
01
#575000
1$
0'
#575786
11
#580000
0$
1'
#580893
01
#585000
1$
0'
#585786
11
#590000
0$
1'
#590893
01
#595000
1$
0'
#595786
11
#600000
0$
1'
#600893
01
#605000
1$
0'
#605786
11
#610000
0$
1'
#610893
01
#615000
1$
0'
#615786
11
#620000
0$
1'
#620893
01
#625000
1$
0'
#625786
11
#630000
0$
1'
#630893
01
#635000
1$
0'
#635786
11
#640000
0$
1'
#640893
01
#645000
1$
0'
#645786
11
#650000
0$
1'
#650893
01
#655000
1$
0'
#655786
11
#660000
0$
1'
#660893
01
#665000
1$
0'
#665786
11
#670000
0$
1'
#670893
01
#675000
1$
0'
#675786
11
#680000
0$
1'
#680893
01
#685000
1$
0'
#685786
11
#690000
0$
1'
#690893
01
#695000
1$
0'
#695786
11
#700000
0$
1'
#700893
01
#705000
1$
0'
#705786
11
#710000
0$
1'
#710893
01
#715000
1$
0'
#715786
11
#720000
0$
1'
#720893
01
#725000
1$
0'
#725786
11
#730000
0$
1'
#730893
01
#735000
1$
0'
#735786
11
#740000
0$
1'
#740893
01
#745000
1$
0'
#745786
11
#750000
0$
1'
#750893
01
#755000
1$
0'
#755786
11
#760000
0$
1'
#760893
01
#765000
1$
0'
#765786
11
#770000
0$
1'
#770893
01
#775000
1$
0'
#775786
11
#780000
0$
1'
#780893
01
#785000
1$
0'
#785786
11
#790000
0$
1'
#790893
01
#795000
1$
0'
#795786
11
#800000
0$
1'
#800893
01
#805000
1$
0'
#805786
11
#810000
0$
1'
#810893
01
#815000
1$
0'
#815786
11
#820000
0$
1'
#820893
01
#825000
1$
0'
#825786
11
#830000
0$
1'
#830893
01
#835000
1$
0'
#835786
11
#840000
0$
1'
#840893
01
#845000
1$
0'
#845786
11
#850000
0$
1'
#850893
01
#855000
1$
0'
#855786
11
#860000
0$
1'
#860893
01
#865000
1$
0'
#865786
11
#870000
0$
1'
#870893
01
#875000
1$
0'
#875786
11
#880000
0$
1'
#880893
01
#885000
1$
0'
#885786
11
#890000
0$
1'
#890893
01
#895000
1$
0'
#895786
11
#900000
0$
1'
#900893
01
#905000
1$
0'
#905786
11
#910000
0$
1'
#910893
01
#915000
1$
0'
#915786
11
#920000
0$
1'
#920893
01
#925000
1$
0'
#925786
11
#930000
0$
1'
#930893
01
#935000
1$
0'
#935786
11
#940000
0$
1'
#940893
01
#945000
1$
0'
#945786
11
#950000
0$
1'
#950893
01
#955000
1$
0'
#955786
11
#960000
0$
1'
#960893
01
#965000
1$
0'
#965786
11
#970000
0$
1'
#970893
01
#975000
1$
0'
#975786
11
#980000
0$
1'
#980893
01
#985000
1$
0'
#985786
11
#990000
0$
1'
#990893
01
#995000
1$
0'
#995786
11
